Processing file... b3lyp.gjf
INPUT GAUSSIAN FILE
===========================================================
%nproc=24
%mem=64gb
%chk=b3lyp.gjf_24cores_out.10753383.chk

%nprocshared=6
%mem=2GB
%chk=b3lyp_opt.chk
#p opt=calcfc B3LYP/6-31G*

H2O

0 1
 O                  2.20062837    0.84489080    0.01106163
 H                  3.16062834    0.84513191    0.01106163
 H                  1.88040106    1.74990709    0.01106163

 1 2 1.0 3 1.0
 2
 3

--Link1--
%nprocshared=6
%mem=2GB
%oldchk=b3lyp_opt.chk
%chk=b3lyp_esp.chk
#p B3LYP/6-31G* guess=read pop=(mk,dipole) geom=allcheck gfinput gfprint iop(6/33=2)

===========================================================

real	0m5.797s
user	0m0.038s
sys	0m0.050s
DONE with GAUSSIAN JOB 10753383, input file b3lyp.gjf
