Processing file... hf.gjf
INPUT GAUSSIAN FILE
===========================================================
%nproc=24
%mem=64gb
%chk=hf.gjf_24cores_out.10753387.chk

%nprocshared=6
%mem=2GB
%chk=hf_opt.chk
#p opt=calcfc hf/6-311++G**

H2O

0 1
 O                  2.20062837    0.84489080    0.01106163
 H                  3.16062834    0.84513191    0.01106163
 H                  1.88040106    1.74990709    0.01106163

 1 2 1.0 3 1.0
 2
 3

--Link1--
%nprocshared=6
%mem=2GB
%oldchk=hf_opt.chk
%chk=hf_esp.chk
#p hf/6-311++G** guess=read pop=(mk,dipole) geom=allcheck gfinput gfprint iop(6/33=2)

===========================================================

real	0m5.788s
user	0m0.040s
sys	0m0.054s
DONE with GAUSSIAN JOB 10753387, input file hf.gjf
