Processing file... wb97.gjf
INPUT GAUSSIAN FILE
===========================================================
%nproc=24
%mem=64gb
%chk=wb97.gjf_24cores_out.10744898.chk

%nprocshared=6
%mem=2GB
%chk=wb97_opt.chk
#p opt=calcfc wb97xd/aug-cc-PVTZ

H2O

0 1
 O                  2.20062837    0.84489080    0.01106163
 H                  3.16062834    0.84513191    0.01106163
 H                  1.88040106    1.74990709    0.01106163

 1 2 1.0 3 1.0
 2
 3

--Link1--
%nprocshared=6
%mem=2GB
%oldchk=wb97_opt.chk
%chk=wb97_esp.chk
#p wb97xd/aug-cc-PVTZ nosymm guess=read pop=mk geom=allcheck gfinput gfprint iop(6/33=2)

===========================================================

real	0m21.088s
user	0m0.037s
sys	0m0.063s
DONE with GAUSSIAN JOB 10744898, input file wb97.gjf
